{
    "help": "http://datos.gob.cl/api/3/action/help_show?name=datastore_search",
    "success": true,
    "result": {
        "resource_id": "a60f93af-6a8a-45b6-85ff-267f5dd37ad6",
        "fields": [{
            "type": "int4",
            "id": "_id"
        }, {
            "type": "text",
            "id": "fecha"
        }, {
            "type": "numeric",
            "id": "local_id"
        }, {
            "type": "numeric",
            "id": "fk_region"
        }, {
            "type": "numeric",
            "id": "fk_comuna"
        }, {
            "type": "numeric",
            "id": "fk_localidad"
        }, {
            "type": "text",
            "id": "local_nombre"
        }, {
            "type": "text",
            "id": "comuna_nombre"
        }, {
            "type": "text",
            "id": "localidad_nombre"
        }, {
            "type": "text",
            "id": "local_direccion"
        }, {
            "type": "text",
            "id": "funcionamiento_hora_apertura"
        }, {
            "type": "text",
            "id": "funcionamiento_hora_cierre"
        }, {
            "type": "text",
            "id": "local_telefono"
        }, {
            "type": "text",
            "id": "local_lat"
        }, {
            "type": "text",
            "id": "local_lng"
        }, {
            "type": "text",
            "id": "funcionamiento_dia"
        }],
        "records": [{
            "localidad_nombre": "QUILLOTA",
            "local_telefono": "+5633269467",
            "comuna_nombre": "QUILLOTA",
            "fecha": "19-11-15",
            "fk_comuna": "69",
            "local_nombre": "CRUZ VERDE ",
            "funcionamiento_dia": "jueves",
            "local_id": "1",
            "local_lng": "-71.24677",
            "local_lat": "-32.8794537",
            "funcionamiento_hora_apertura": "08:30:00",
            "fk_localidad": "32",
            "fk_region": "6",
            "_id": 1,
            "local_direccion": "OHIGGINS 195, LOCAL 1",
            "funcionamiento_hora_cierre": "21:30:00"
        }, {
            "localidad_nombre": "LA CALERA",
            "local_telefono": "+56332724714",
            "comuna_nombre": "LA CALERA",
            "fecha": "19-11-15",
            "fk_comuna": "56",
            "local_nombre": "CRUZ VERDE",
            "funcionamiento_dia": "jueves",
            "local_id": "2",
            "local_lng": "-71.1898402",
            "local_lat": "-32.7866201",
            "funcionamiento_hora_apertura": "09:00:00",
            "fk_localidad": "12",
            "fk_region": "6",
            "_id": 2,
            "local_direccion": "J.J. PEREZ 202",
            "funcionamiento_hora_cierre": "21:30:00"
        }, {
            "localidad_nombre": "LIMACHE",
            "local_telefono": "+5633415940",
            "comuna_nombre": "LIMACHE",
            "fecha": "19-11-15",
            "fk_comuna": "59",
            "local_nombre": "CRUZ VERDE",
            "funcionamiento_dia": "jueves",
            "local_id": "3",
            "local_lng": "-71.275526",
            "local_lat": "-32.9852528",
            "funcionamiento_hora_apertura": "08:30:00",
            "fk_localidad": "17",
            "fk_region": "6",
            "_id": 3,
            "local_direccion": "URMENETA 99",
            "funcionamiento_hora_cierre": "21:30:00"
        }, {
            "localidad_nombre": "LIMACHE",
            "local_telefono": "+5633418343",
            "comuna_nombre": "LIMACHE",
            "fecha": "19-11-15",
            "fk_comuna": "59",
            "local_nombre": "CRUZ VERDE",
            "funcionamiento_dia": "jueves",
            "local_id": "4",
            "local_lng": "-71.265572",
            "local_lat": "-33.0021303",
            "funcionamiento_hora_apertura": "09:00:00",
            "fk_localidad": "17",
            "fk_region": "6",
            "_id": 4,
            "local_direccion": "REPUBLICA 281",
            "funcionamiento_hora_cierre": "21:30:00"
        }],
        "_links": {
            "start": "/api/action/datastore_search?limit=5&resource_id=a60f93af-6a8a-45b6-85ff-267f5dd37ad6",
            "next": "/api/action/datastore_search?offset=5&limit=5&resource_id=a60f93af-6a8a-45b6-85ff-267f5dd37ad6"
        },
        "limit": 5,
        "total": 2977
    }
}
